{"liste":[
 {"numero":"1","nom":"Charles","prenoms":[{"prenom":"Wu"}]},
 {"numero":"2","nom":"Mohamed","prenoms":[{"prenom":"Dunia"}]},
 {"numero":"3","nom":"Charon","prenoms":[{"prenom":"Moise"},{"prenom":"Elie"}]},
 {"numero":"4","nom":"Verhofstadt","prenoms":[{"prenom":"Baudouin"}]}
]
}